start,end,peakSlipRate,ruptureWidth
26.75999999999787,26.784999999997865,0.027083990074991897,0.7066604616124774
28.98999999999762,29.049999999997617,0.03226818570782891,0.7066460434893268
31.56499999999734,31.614999999997334,0.042600764506162535,0.7065953907642707
34.18999999999705,34.24499999999704,0.039804029857929246,0.7065001704582403
36.69999999999678,36.75499999999677,0.04534969591160434,0.7063800319864028
39.32999999999648,39.39499999999648,0.038848015455120025,0.7062439809396165
42.71999999999611,42.7699999999961,0.04713727822866609,0.7063968867127027
45.77499999999578,45.83999999999577,0.04896737991925046,0.7064612510276674
48.69499999999545,48.75499999999545,0.04528040064825157,0.7062545440454634
